{
    "build_target": "amd64",
    "channel": "stable",
    "installations": [
        {
            "installation-paths": [
                {
                    "target-files": [
                        {
                            "sha256": "cf0024036fc33b8727450eac9bb54615bab099145ffc7228e1ff8dcc58da495f",
                            "size": 1161822208,
                            "url": "http://dl.amnesia.boum.org/tails/stable/tails-amd64-4.2.2/tails-amd64-4.2.2.img"
                        }
                    ],
                    "type": "img"
                },
                {
                    "target-files": [
                        {
                            "sha256": "307be5c051a10920b9dfe0b3b4447eeabf0037c427081997017b58cdac0ac4a1",
                            "size": 1151539200,
                            "url": "http://dl.amnesia.boum.org/tails/stable/tails-amd64-4.2.2/tails-amd64-4.2.2.iso"
                        }
                    ],
                    "type": "iso"
                }
            ],
            "version": "4.2.2"
        }
    ],
    "product-name": "Tails"
}
